<svg width="61" height="63" viewBox="0 0 61 63" fill="none" xmlns="http://www.w3.org/2000/svg">
<path d="M30.5 63C47.3447 63 61 48.897 61 31.5C61 14.103 47.3447 0 30.5 0C13.6553 0 0 14.103 0 31.5C0 48.897 13.6553 63 30.5 63Z" fill="#004620"/>
<path d="M21.5368 36.993C21.5368 36.993 26.746 30.6411 35.6651 35.3655C40.3708 37.8633 40.8524 45.5377 47.6155 45.1647C44.7264 48.838 32.3929 50.6238 29.8102 49.211C26.6037 47.4704 21.4164 46.0915 21.4711 36.8687" fill="#79AE42"/>
<path d="M28.6066 26.8773C29.3023 27.9555 30.1899 28.8874 31.2221 29.6238C33.0197 30.9431 35.1222 31.7501 37.3177 31.9634C40.9118 32.3025 44.5189 31.4769 47.6376 29.6012C48.6007 29.0587 49.4981 28.4031 50.4283 27.8041C50.4939 27.8041 50.5596 27.7363 50.7128 27.6572C50.866 28.6857 51.0192 29.669 51.1396 30.6523C51.1162 30.8375 51.0264 31.0069 50.8879 31.127C48.7301 32.8855 46.273 34.2118 43.6432 35.0377L42.0016 35.5124C42.505 35.7497 42.8334 36.0549 43.4243 35.8967C46.1817 35.1833 48.7672 33.8905 51.0192 32.099C51.055 32.0662 51.0956 32.0395 51.1396 32.0199C51.1396 32.0199 51.1943 32.0199 51.2928 32.0199C51.2928 32.2573 51.2928 32.5059 51.2928 32.7433C51.2928 33.5684 51.2053 34.3934 51.1396 35.2185C51.12 35.2962 51.0857 35.3692 51.0388 35.4332C50.9918 35.4972 50.9331 35.551 50.866 35.5915C49.2939 36.6145 47.6023 37.4273 45.8319 38.0102L45.4708 38.1346C45.81 38.7675 45.8976 38.8014 46.5651 38.598C48.0178 38.1431 49.4192 37.5293 50.7456 36.767L51.0302 36.6426C50.8222 37.5016 50.6034 38.2815 50.4501 39.0727C50.4151 39.4742 50.2504 39.8518 49.9824 40.145C49.7145 40.4381 49.3589 40.6297 48.9728 40.6889C48.5281 40.8189 48.0929 40.9813 47.6705 41.1749C47.9769 41.8305 47.9769 41.8305 48.6226 41.627L49.6403 41.288C49.3886 41.8418 49.1916 42.3391 48.929 42.8025C48.8507 42.9353 48.8093 43.0878 48.8093 43.2433C48.8093 43.3988 48.8507 43.5513 48.929 43.6841C49.1588 44.1927 49.323 44.7239 49.5418 45.2325C49.5849 45.3273 49.5964 45.434 49.5746 45.5362C49.5529 45.6384 49.499 45.7303 49.4214 45.7976C48.4019 46.8512 47.2364 47.7425 45.9632 48.4424C43.7677 49.8476 41.3173 50.7746 38.7623 51.1663C37.0594 51.4299 35.331 51.4678 33.6188 51.2793C31.3048 51.0742 29.0502 50.4144 26.976 49.3353C24.436 48.0808 22.472 45.8496 21.5041 43.119C20.8217 41.0995 20.8411 38.8977 21.5589 36.8913C21.5861 36.8221 21.623 36.7574 21.6683 36.6992C21.6136 37.1399 21.537 37.5129 21.526 37.8859C21.4772 40.2001 22.2214 42.4577 23.6272 44.2605C25.2748 46.4731 27.6284 48.0109 30.27 48.6007C32.1048 49.102 33.9974 49.3416 35.8951 49.3127C40.0349 49.2254 44.0508 47.8377 47.4078 45.3342C47.4539 45.3138 47.4953 45.2837 47.5295 45.2458C47.5636 45.2079 47.5898 45.163 47.6063 45.1141C47.6227 45.0652 47.6292 45.0133 47.6251 44.9617C47.6211 44.9101 47.6067 44.8599 47.5829 44.8143C46.3079 41.3951 43.9362 38.5307 40.8635 36.6992C38.6941 35.4766 36.3854 34.5388 33.9909 33.9074C31.9796 33.356 30.1112 32.3526 28.519 30.9688C27.5998 30.1738 26.8643 29.1766 26.3663 28.0502C25.8683 26.9238 25.6205 25.6967 25.6409 24.4586C25.5405 22.5134 26.051 20.5869 27.0964 18.9656C27.709 18.0615 28.4904 17.293 29.3945 16.7051C29.0227 16.2795 28.6281 15.8758 28.2126 15.4957C27.3207 14.7436 26.2402 14.2688 25.097 14.1268C23.9538 13.9847 22.7951 14.1811 21.7559 14.6932C19.2408 15.8292 17.181 17.8247 15.9229 20.3445C14.7624 22.4474 13.9627 24.7417 13.559 27.126C13.2765 28.9455 13.2067 30.7935 13.3511 32.6303C13.4825 34.9886 13.9167 37.3185 14.6425 39.5587C15.5997 42.6095 17.2418 45.3834 19.4346 47.6541C21.6275 49.9247 24.309 51.6278 27.2605 52.6243C29.1225 53.3242 31.0526 53.8131 33.0169 54.0824L33.3124 54.1841C31.6067 54.4227 29.879 54.4417 28.1688 54.2406C23.7881 53.7262 19.6791 51.7869 16.4354 48.7029C13.1916 45.6189 10.9809 41.5498 10.1227 37.0834C9.51744 34.0908 9.5525 30.9976 10.2254 28.0204C10.8984 25.0432 12.193 22.2537 14.0187 19.8472C15.6293 17.6487 17.6451 15.801 19.9501 14.4107L20.2128 14.2524C20.3142 14.2061 20.4023 14.1335 20.4687 14.0418C20.535 13.95 20.5774 13.8422 20.5917 13.7286C20.606 13.6151 20.5917 13.4996 20.5503 13.3934C20.5088 13.2872 20.4416 13.1938 20.3551 13.1222C20.0475 12.7784 19.7795 12.3992 19.5562 11.9919C19.3206 11.5404 19.1754 11.0446 19.1294 10.5339C19.1043 10.2035 19.1671 9.8722 19.3111 9.57592C19.455 9.27964 19.6745 9.02959 19.946 8.85276C20.2175 8.67593 20.5305 8.57904 20.8514 8.57255C21.1723 8.56606 21.4888 8.65022 21.7668 8.81594C22.6029 9.30174 23.3272 9.96881 23.8899 10.7713L24.1635 11.1329C24.1635 10.9069 24.1635 10.7713 24.1635 10.6243C24.1507 10.4395 24.1865 10.2544 24.2672 10.0889C24.3479 9.92329 24.4704 9.78331 24.6217 9.68372C24.7731 9.58413 24.9477 9.52864 25.1271 9.52312C25.3065 9.51759 25.484 9.56223 25.6409 9.65232C26.0207 9.84537 26.3452 10.1376 26.582 10.5C27.0198 11.2008 27.359 11.9693 27.6764 12.6701C28.0485 12.0032 28.8802 12.0371 29.3179 12.8622C29.4791 13.2184 29.5791 13.6009 29.6134 13.9925C29.6791 14.4333 29.6681 14.8967 29.701 15.3488C29.7005 15.4804 29.7436 15.6083 29.8233 15.7111C29.9029 15.8139 30.0142 15.8855 30.1387 15.9139C30.6386 16.0604 31.0976 16.3274 31.4781 16.6929C31.8586 17.0583 32.1497 17.5119 32.3274 18.0162C32.3274 18.084 32.3274 18.1631 32.3822 18.2535C32.4011 17.8804 32.3437 17.5074 32.2136 17.1587C32.0835 16.8101 31.8836 16.4938 31.627 16.2304C31.3382 15.9483 31.0187 15.7018 30.6749 15.4957C30.5942 15.462 30.5251 15.4042 30.4764 15.3297C30.4277 15.2552 30.4015 15.1674 30.4014 15.0775C30.4014 14.5651 30.3795 14.0565 30.3357 13.5517C30.3379 13.1015 30.2099 12.661 29.9681 12.2865C29.7264 11.9119 29.3818 11.6205 28.9787 11.4494C29.0915 11.4377 29.2051 11.4377 29.3179 11.4494C33.6778 11.2099 38.0004 12.3901 41.6761 14.8236C45.3517 17.257 48.1949 20.8208 49.8045 25.0124C49.8675 25.1318 49.8867 25.2707 49.8586 25.4036C49.8304 25.5365 49.7568 25.6544 49.6513 25.7357C47.2624 28.3964 44.0876 30.165 40.6227 30.7654C37.4127 31.4192 34.082 30.8533 31.244 29.1717C30.2656 28.5376 29.3779 27.7653 28.6066 26.8773Z" fill="#FFF100"/>
<path d="M26.7025 15.88C26.4675 16.0825 26.1879 16.2225 25.8884 16.2875C25.5888 16.3525 25.2784 16.3407 24.9843 16.253C24.9348 16.2335 24.8902 16.2027 24.8539 16.1628C24.8176 16.1229 24.7905 16.0751 24.7747 16.0229C24.7589 15.9706 24.7548 15.9154 24.7627 15.8613C24.7705 15.8071 24.7902 15.7556 24.8202 15.7104C24.8814 15.5765 24.9822 15.4661 25.1081 15.395C25.2339 15.3239 25.3783 15.2959 25.5206 15.3149C25.7454 15.3151 25.9676 15.3658 26.1716 15.4634C26.3757 15.5609 26.5568 15.7031 26.7025 15.88Z" fill="#FFF100"/>
<path d="M22.0517 35.2411C22.0517 35.2411 32.9954 45.4133 40.3167 44.8256C40.3167 44.8256 33.1705 47.1426 21.4717 36.9139" fill="#004620"/>
<path d="M24.7979 36.9704C26.0457 36.4514 27.3987 36.2603 28.7357 36.4141C30.0727 36.568 31.3518 37.062 32.4584 37.852C29.9537 37.2108 27.3778 36.9144 24.7979 36.9704Z" fill="#004620"/>
<path d="M29.9961 40.3385C30.9908 39.9253 32.0691 39.773 33.1348 39.8952C34.2004 40.0175 35.2201 40.4106 36.1027 41.0393C34.1054 40.5317 32.0525 40.2961 29.9961 40.3385Z" fill="#004620"/>
<path d="M25.4116 39.9656C25.3176 41.1749 25.5141 42.3895 25.9837 43.5015C26.4534 44.6135 27.1816 45.5886 28.1037 46.3402C26.9414 44.3455 26.0363 42.2025 25.4116 39.9656Z" fill="#004620"/>
<path d="M30.5 43.458C30.7575 44.4308 31.2439 45.3228 31.916 46.0544C32.5882 46.786 33.425 47.3346 34.3522 47.6512C32.8932 46.4367 31.5977 45.0266 30.5 43.458Z" fill="#004620"/>
</svg>
